<?xml version="1.0" encoding="UTF-8"?>
<svg width="102px" height="13px" viewBox="0 0 102 13" version="1.1" xmlns="http://www.w3.org/2000/svg" xmlns:xlink="http://www.w3.org/1999/xlink">
    <!-- Generator: Sketch 53.1 (72631) - https://sketchapp.com -->
    <title>Selfish Copy</title>
    <desc>Created with Sketch.</desc>
    <g id="Home" stroke="none" stroke-width="1" fill="none" fill-rule="evenodd">
        <g id="1920px-Home" transform="translate(-247.000000, -38.000000)" fill="#FFFFFF" stroke="#FFFFFF" stroke-width="0.5">
            <g id="Header">
                <g id="Group-4" transform="translate(248.000000, 37.000000)">
                    <path d="M8.9918527,4.0606469 C8.16591129,2.45956873 6.40494187,2 4.70630765,2 C2.69599743,2.0148248 0.483097805,2.88948787 0.483097805,5.02425876 C0.483097805,7.35175202 2.54015943,7.91509434 4.76864285,8.1671159 C6.21793627,8.31536388 7.29321848,8.71563342 7.29321848,9.69407008 C7.29321848,10.8207547 6.07768207,11.2506739 4.78422665,11.2506739 C3.45960364,11.2506739 2.19731582,10.7466307 1.71421802,9.60512129 L0,10.4501348 C0.810357609,12.3477089 2.52457563,13 4.75305905,13 C7.18413188,13 9.3346963,12.0067385 9.3346963,9.69407008 C9.3346963,7.21832884 7.21529948,6.65498652 4.94006466,6.38814016 C3.63102544,6.23989218 2.50899183,5.98787062 2.50899183,5.08355795 C2.50899183,4.31266846 3.24143044,3.70485175 4.76864285,3.70485175 C5.95301167,3.70485175 6.98154248,4.26819407 7.35555368,4.86118598 L8.9918527,4.0606469 Z M25.1832135,10.8059299 L19.05878,10.8059299 L19.05878,8.46361186 L24.9650403,8.46361186 L24.9650403,6.64016173 L19.05878,6.64016173 L19.05878,4.25336927 L25.1832135,4.25336927 L25.1832135,2.35579515 L17.0173022,2.35579515 L17.0173022,12.7331536 L25.1832135,12.7331536 L25.1832135,10.8059299 Z M32.8969869,2.35579515 L32.8969869,12.7331536 L40.5642166,12.7331536 L40.5642166,10.9245283 L34.9540486,10.9245283 L34.9540486,2.35579515 L32.8969869,2.35579515 Z M65.7316387,12.7331536 L65.7316387,2.35579515 L63.6901608,2.35579515 L63.6901608,12.7331536 L65.7316387,12.7331536 Z M82.4684324,4.0606469 C81.642491,2.45956873 79.8815216,2 78.1828874,2 C76.1725772,2.0148248 73.9596775,2.88948787 73.9596775,5.02425876 C73.9596775,7.35175202 76.0167392,7.91509434 78.2452226,8.1671159 C79.694516,8.31536388 80.7697982,8.71563342 80.7697982,9.69407008 C80.7697982,10.8207547 79.5542618,11.2506739 78.2608064,11.2506739 C76.9361834,11.2506739 75.6738955,10.7466307 75.1907977,9.60512129 L73.4765797,10.4501348 C74.2869373,12.3477089 76.0011554,13 78.2296388,13 C80.6607116,13 82.811276,12.0067385 82.811276,9.69407008 C82.811276,7.21832884 80.6918792,6.65498652 78.4166444,6.38814016 C77.1076052,6.23989218 75.9855716,5.98787062 75.9855716,5.08355795 C75.9855716,4.31266846 76.7180102,3.70485175 78.2452226,3.70485175 C79.4295914,3.70485175 80.4581222,4.26819407 80.8321334,4.86118598 L82.4684324,4.0606469 Z M100,12.7479784 L97.9585222,12.7479784 L97.9585222,8.55256065 L92.5976949,8.55256065 L92.5976949,12.7479784 L90.5406333,12.7479784 L90.5406333,2.37061995 L92.5976949,2.37061995 L92.5976949,6.74393531 L97.9585222,6.74393531 L97.9585222,2.37061995 L100,2.37061995 L100,12.7479784 Z M52.3360913,12.7331536 L52.3360913,8.893531 L46.8661775,8.893531 L46.8661775,7.08490566 L52.3360913,7.08490566 L52.3360913,4.25336927 L46.5545014,4.25336927 L46.5545014,2.37061995 L54.3931529,2.37061995 L54.3931529,12.7331536 L52.3360913,12.7331536 Z" id="Selfish-Copy"></path>
                </g>
            </g>
        </g>
    </g>
</svg>